id,name,model_id:id,group_id:id,perm_read,perm_write,perm_create,perm_unlink
access_kw_resignation_master_user,kw_resignation_master,model_kw_resignation_master,base.group_user,1,1,1,1
access_kw_resignation_user,kw_resignation,model_kw_resignation,base.group_user,1,1,1,1
access_kw_kt_category_user,kw_kt_category,model_kw_kt_category,base.group_user,1,1,1,1
access_kw_kt_tag_user,kw_kt_tag,model_kw_kt_tag,base.group_user,1,1,1,1

access_kw_timeline_plan_user,kw_timeline_plan,model_kw_timeline_plan,base.group_user,1,1,1,1
access_kw_project_document_user,kw_project_document,model_kw_project_document,base.group_user,1,1,1,1
