id,name,model_id:id,group_id:id,perm_read,perm_write,perm_create,perm_unlink
access_kw_csm_newsletter_user,kw_csm_newsletter,model_kw_csm_newsletter,base.group_user,1,1,1,1

access_kw_csm_page_history_user,kw_csm_page_history user,model_kw_csm_page_history,base.group_user,1,1,1,1
